IS 407 Lab 01 Team Project - A Hugo website
…
Take turns answering the exercises.
Make sure each team member gets to commit to the repo by the time you submit your work.
And make sure that the person taking the lead for an exercise is sharing their screen.
You don’t have to switch at each exercise, you can find your a cadence that works for your team and stick to it.

Get to know your data

How many observations and how many variables are in the dataset? Use inline code to answer this question. What does each row represent?

There are some observations in this dataset that we will exclude from our analysis to match the Buzzfeed results.

nobel

## # A tibble: 935 x 26
##       id firstname  surname  year category affiliation  city  country born_date 
##    <dbl> <chr>      <chr>   <dbl> <chr>    <chr>        <chr> <chr>   <date>    
##  1     1 Wilhelm C~ Röntgen  1901 Physics  Munich Univ~ Muni~ Germany 1845-03-27
##  2     2 Hendrik A. Lorentz  1902 Physics  Leiden Univ~ Leid~ Nether~ 1853-07-18
##  3     3 Pieter     Zeeman   1902 Physics  Amsterdam U~ Amst~ Nether~ 1865-05-25
##  4     4 Henri      Becque~  1903 Physics  École Polyt~ Paris France  1852-12-15
##  5     5 Pierre     Curie    1903 Physics  École munic~ Paris France  1859-05-15
##  6     6 Marie      Curie    1903 Physics  <NA>         <NA>  <NA>    1867-11-07
##  7     6 Marie      Curie    1911 Chemist~ Sorbonne Un~ Paris France  1867-11-07
##  8     8 Lord       Raylei~  1904 Physics  Royal Insti~ Lond~ United~ 1842-11-12
##  9     9 Philipp    Lenard   1905 Physics  Kiel Univer~ Kiel  Germany 1862-06-07
## 10    10 J.J.       Thomson  1906 Physics  University ~ Camb~ United~ 1856-12-18
## # ... with 925 more rows, and 17 more variables: died_date <date>,
## #   gender <chr>, born_city <chr>, born_country <chr>, born_country_code <chr>,
## #   died_city <chr>, died_country <chr>, died_country_code <chr>,
## #   overall_motivation <chr>, share <dbl>, motivation <chr>,
## #   born_country_original <chr>, born_city_original <chr>,
## #   died_country_original <chr>, died_city_original <chr>, city_original <chr>,
## #   country_original <chr>
…
laureates who are people as opposed to organizations (organizations are denoted with "org" as their gender)

laureates who are still alive (their died_date is NA)

nobel_living <- nobel %>%
  filter(
    !is.na(country),
    gender != "org",
    is.na(died_date)
  )

nobel_living

## # A tibble: 228 x 26
##       id firstname   surname  year category affiliation city  country born_date 
##    <dbl> <chr>       <chr>   <dbl> <chr>    <chr>       <chr> <chr>   <date>    
##  1    68 Chen Ning   Yang     1957 Physics  Institute ~ Prin~ USA     1922-09-22
##  2    69 Tsung-Dao   Lee      1957 Physics  Columbia U~ New ~ USA     1926-11-24
##  3    95 Leon N.     Cooper   1972 Physics  Brown Univ~ Prov~ USA     1930-02-28
##  4    97 Leo         Esaki    1973 Physics  IBM Thomas~ York~ USA     1925-03-12
##  5    98 Ivar        Giaever  1973 Physics  General El~ Sche~ USA     1929-04-05
##  6    99 Brian D.    Joseph~  1973 Physics  University~ Camb~ United~ 1940-01-04
##  7   101 Antony      Hewish   1974 Physics  University~ Camb~ United~ 1924-05-11
##  8   103 Ben R.      Mottel~  1975 Physics  Nordita     Cope~ Denmark 1926-07-09
##  9   106 Samuel C.C. Ting     1976 Physics  Massachuse~ Camb~ USA     1936-01-27
## 10   107 Philip W.   Anders~  1977 Physics  Bell Telep~ Murr~ USA     1923-12-13
## # ... with 218 more rows, and 17 more variables: died_date <date>,
## #   gender <chr>, born_city <chr>, born_country <chr>, born_country_code <chr>,
## #   died_city <chr>, died_country <chr>, died_country_code <chr>,
## #   overall_motivation <chr>, share <dbl>, motivation <chr>,
## #   born_country_original <chr>, born_city_original <chr>,
## #   died_country_original <chr>, died_city_original <chr>, city_original <chr>,
## #   country_original <chr>
…
**According to this bar graph, many other counties’ laureates switch their country to USA.

In a single pipeline, filter for laureates who won their prize in the US, but were born outside of the US, and then create a frequency table (with the count() function) for their birth country (born_country) and arrange the resulting data frame in descending order of number of observations for each country. Which country is the most common?

nobel_final <- nobel %>%
  filter(
    country == "USA",
    born_country != "USA")

nobel_final %>% 
  count(born_country) %>%
  arrange(desc(n))

## # A tibble: 37 x 2
##    born_country       n
##    <chr>          <int>
##  1 United Kingdom    15
##  2 Canada            12
##  3 Germany           10
##  4 China              6
##  5 Poland             6
##  6 France             5
##  7 Italy              5
##  8 Japan              5
##  9 Austria            4
## 10 Hungary            4
## # ... with 27 more rows
…
